X__1,X__2,1,2,3,4,5,6
NA,NA,i706,i707,i708,i709,i710,i711
A,i501,1_A,2_A,3_A,13_A,14_A,15_A
B,i502,4_B,5_B,6_B,16_B,17_B,18_B
C,i503,7_C,8_C,9_C,19_C,20_C,21_C
D,i504,10_D,11_D,12_D,22_D,23_D,24_D
E,i505,1_E,2_E,3_E,13_E,14_E,15_E
F,i506,4_F,5_F,6_F,16_F,17_F,18_F
G,i507,7_G,8_G,9_G,19_G,20_G,21_G
H,i508,10_H,11_H,12_H,22_H,23_H,24_H
